This is BibTeX, Version 0.99d (TeX Live 2018)
Capacity: max_strings=100000, hash_size=100000, hash_prime=85009
The top-level auxiliary file: SmartContractEngines.aux
The style file: unsrt.bst
Database file #1: literature.bib
Warning--I didn't find a database entry for "sec:callingcard"
Warning--empty journal in Fraunhofer
Warning--empty journal in hash_functions
Warning--empty year in hash_functions
Warning--empty journal in dlt_finra
Warning--empty journal in BlockchainPaper
Warning--empty journal in pos_attacks
Warning--empty journal in DPoS
Warning--empty journal in criminal
Warning--empty journal in Atzei
Warning--empty journal in Ethereum_WP
Warning--empty journal in EOS_WP
Warning--empty journal in Ethereum_Sharding
Warning--empty journal in Ethereum_Casper
Warning--empty journal in EOS_TechWP
Warning--empty journal in EOS_Monitor
Warning--empty journal in Cardano_Web
Warning--empty journal in Cardano_WP
Warning--empty journal in Cardano_Web2
Warning--empty journal in IOTA_Web
Warning--empty journal in IOTA_WP
Warning--empty journal in Cardano_Youtube
You've used 24 entries,
            1791 wiz_defined-function locations,
            558 strings with 6522 characters,
and the built_in function-call counts, 3085 in all, are:
= -- 239
> -- 96
< -- 0
+ -- 48
- -- 24
* -- 77
:= -- 558
add.period$ -- 70
call.type$ -- 24
change.case$ -- 24
chr.to.int$ -- 0
cite$ -- 45
duplicate$ -- 189
empty$ -- 341
format.name$ -- 24
if$ -- 651
int.to.chr$ -- 0
int.to.str$ -- 24
missing$ -- 23
newline$ -- 121
num.names$ -- 24
pop$ -- 117
preamble$ -- 1
purify$ -- 0
quote$ -- 0
skip$ -- 72
stack$ -- 0
substring$ -- 0
swap$ -- 4
text.length$ -- 0
text.prefix$ -- 0
top$ -- 0
type$ -- 0
warning$ -- 21
while$ -- 24
width$ -- 26
write$ -- 218
(There were 22 warnings)
