\BOOKMARK [1][-]{section.1}{Einleitung}{}% 1
\BOOKMARK [1][-]{section.2}{Was ist ein <<Smart Contract>>?}{}% 2
\BOOKMARK [1][-]{section.3}{Funktionsprinzip von Smart Contracts}{}% 3
\BOOKMARK [2][-]{subsection.3.1}{Recall: Funktionsprinzip von Blockchains}{section.3}% 4
\BOOKMARK [2][-]{subsection.3.2}{Ausweitung von Blockchains auf Smart Contracts}{section.3}% 5
\BOOKMARK [1][-]{section.4}{Das Potential von Smart Contracts}{}% 6
\BOOKMARK [2][-]{subsection.4.1}{Kriterien für einen Blockchain-Einsatz}{section.4}% 7
\BOOKMARK [2][-]{subsection.4.2}{Nutzung spezifischer Eigenschaften}{section.4}% 8
\BOOKMARK [2][-]{subsection.4.3}{Anwendungsfelder der Blockchain-Technologie}{section.4}% 9
\BOOKMARK [3][-]{subsubsection.4.3.1}{Finanzbranche}{subsection.4.3}% 10
\BOOKMARK [3][-]{subsubsection.4.3.2}{Medienindustrie}{subsection.4.3}% 11
\BOOKMARK [3][-]{subsubsection.4.3.3}{\326ffentlicher Sektor}{subsection.4.3}% 12
\BOOKMARK [1][-]{section.5}{Gefahren von Smart Contracts}{}% 13
\BOOKMARK [2][-]{subsection.5.1}{Kriminalität}{section.5}% 14
\BOOKMARK [1][-]{section.6}{Vergleich verschiedener Smart Contracts Plattformen}{}% 15
\BOOKMARK [2][-]{subsection.6.1}{Ethereum}{section.6}% 16
\BOOKMARK [2][-]{subsection.6.2}{EOS}{section.6}% 17
\BOOKMARK [2][-]{subsection.6.3}{Cardano}{section.6}% 18
\BOOKMARK [2][-]{subsection.6.4}{IOTA}{section.6}% 19
\BOOKMARK [2][-]{subsection.6.5}{Zusammenfassung}{section.6}% 20
\BOOKMARK [1][-]{section.7}{Ethische Aspekte}{}% 21
\BOOKMARK [1][-]{section.8}{Fazit}{}% 22
