\relax 
\providecommand\hyper@newdestlabel[2]{}
\catcode `"\active 
\providecommand\HyperFirstAtBeginDocument{\AtBeginDocument}
\HyperFirstAtBeginDocument{\ifx\hyper@anchor\@undefined
\global\let\oldcontentsline\contentsline
\gdef\contentsline#1#2#3#4{\oldcontentsline{#1}{#2}{#3}}
\global\let\oldnewlabel\newlabel
\gdef\newlabel#1#2{\newlabelxx{#1}#2}
\gdef\newlabelxx#1#2#3#4#5#6{\oldnewlabel{#1}{{#2}{#3}}}
\AtEndDocument{\ifx\hyper@anchor\@undefined
\let\contentsline\oldcontentsline
\let\newlabel\oldnewlabel
\fi}
\fi}
\global\let\hyper@last\relax 
\gdef\HyperFirstAtBeginDocument#1{#1}
\providecommand\HyField@AuxAddToFields[1]{}
\providecommand\HyField@AuxAddToCoFields[2]{}
\babel@aux{german}{}
\citation{cognizant}
\citation{Fraunhofer}
\citation{cognizant}
\citation{Fraunhofer}
\citation{cognizant}
\citation{Norta}
\citation{cognizant}
\citation{Res.practice}
\citation{cognizant}
\citation{cognizant}
\@writefile{toc}{\contentsline {section}{\numberline {\oldstylenums  {1}}Einleitung}{3}{section.1}}
\@writefile{toc}{\contentsline {section}{\numberline {\oldstylenums  {2}}Was ist ein {\normalfont  <<}Smart Contract{\normalfont  >>}?}{3}{section.2}}
\newlabel{sec:smart_contract}{{\oldstylenums  {2}}{3}{Was ist ein \quotes {Smart Contract}?}{section.2}{}}
\citation{Fraunhofer}
\citation{hash_functions}
\citation{dlt_finra}
\citation{cognizant}
\citation{BlockchainPaper}
\citation{BlockchainPaper}
\citation{pos_attacks}
\citation{DPoS}
\@writefile{toc}{\contentsline {section}{\numberline {\oldstylenums  {3}}Funktionsprinzip von Smart Contracts}{4}{section.3}}
\@writefile{toc}{\contentsline {subsection}{\numberline {\oldstylenums  {\oldstylenums  {3}.1}}Recall: Funktionsprinzip von Blockchains}{4}{subsection.3.1}}
\newlabel{sec:funktionsprinzip}{{\oldstylenums  {\oldstylenums  {3}.1}}{4}{Recall: Funktionsprinzip von Blockchains}{subsection.3.1}{}}
\citation{cognizant}
\citation{Fraunhofer}
\citation{Fraunhofer}
\@writefile{toc}{\contentsline {subsection}{\numberline {\oldstylenums  {\oldstylenums  {3}.2}}Ausweitung von Blockchains auf Smart Contracts}{5}{subsection.3.2}}
\@writefile{toc}{\contentsline {section}{\numberline {\oldstylenums  {4}}Das Potential von Smart Contracts}{5}{section.4}}
\@writefile{toc}{\contentsline {subsection}{\numberline {\oldstylenums  {\oldstylenums  {4}.1}}Kriterien für einen Blockchain-Einsatz}{5}{subsection.4.1}}
\citation{cognizant}
\citation{cognizant}
\citation{cognizant}
\citation{cognizant}
\citation{Fraunhofer}
\@writefile{toc}{\contentsline {subsection}{\numberline {\oldstylenums  {\oldstylenums  {4}.2}}Nutzung spezifischer Eigenschaften}{6}{subsection.4.2}}
\newlabel{sec:beispiele}{{\oldstylenums  {\oldstylenums  {4}.2}}{6}{Nutzung spezifischer Eigenschaften}{subsection.4.2}{}}
\@writefile{toc}{\contentsline {subsection}{\numberline {\oldstylenums  {\oldstylenums  {4}.3}}Anwendungsfelder der Blockchain-Technologie}{6}{subsection.4.3}}
\@writefile{toc}{\contentsline {subsubsection}{\numberline {\oldstylenums  {\oldstylenums  {\oldstylenums  {4}.3}.1}}Finanzbranche}{6}{subsubsection.4.3.1}}
\citation{Fraunhofer}
\citation{Fraunhofer}
\citation{Fraunhofer}
\citation{Fraunhofer}
\@writefile{toc}{\contentsline {subsubsection}{\numberline {\oldstylenums  {\oldstylenums  {\oldstylenums  {4}.3}.2}}Medienindustrie}{7}{subsubsection.4.3.2}}
\@writefile{toc}{\contentsline {subsubsection}{\numberline {\oldstylenums  {\oldstylenums  {\oldstylenums  {4}.3}.3}}\"Offentlicher Sektor}{7}{subsubsection.4.3.3}}
\@writefile{toc}{\contentsline {section}{\numberline {\oldstylenums  {5}}Gefahren von Smart Contracts}{7}{section.5}}
\citation{integersToDiophantineEquations}
\citation{criminal}
\citation{criminal}
\citation{criminal}
\citation{Atzei}
\citation{Ethereum_WP}
\citation{Ethereum_WP}
\citation{Ethereum_WP}
\citation{Ethereum_WP}
\@writefile{toc}{\contentsline {subsection}{\numberline {\oldstylenums  {\oldstylenums  {5}.1}}Kriminalität}{8}{subsection.5.1}}
\newlabel{sec:callingcard}{{\oldstylenums  {\oldstylenums  {5}.1}}{8}{Kriminalität}{subsection.5.1}{}}
\@writefile{toc}{\contentsline {section}{\numberline {\oldstylenums  {6}}Vergleich verschiedener Smart Contracts Plattformen}{8}{section.6}}
\citation{Atzei}
\citation{Atzei}
\citation{EOS_WP}
\citation{EOS_WP}
\citation{Ethereum_Sharding}
\citation{Ethereum_Casper}
\citation{Ethereum_Casper}
\citation{Ethereum_Casper}
\citation{EOS_WP}
\citation{EOS_WP}
\citation{EOS_WP}
\citation{EOS_WP}
\@writefile{toc}{\contentsline {subsection}{\numberline {\oldstylenums  {\oldstylenums  {6}.1}}Ethereum}{9}{subsection.6.1}}
\@writefile{toc}{\contentsline {subsection}{\numberline {\oldstylenums  {\oldstylenums  {6}.2}}EOS}{9}{subsection.6.2}}
\citation{EOS_WP}
\citation{EOS_WP}
\citation{EOS_WP}
\citation{EOS_WP}
\citation{EOS_WP}
\citation{Atzei}
\citation{EOS_TechWP}
\citation{EOS_WP}
\citation{EOS_Monitor}
\citation{EOS_TechWP}
\citation{Cardano_Web}
\citation{Cardano_Web}
\citation{Cardano_Web}
\citation{Cardano_WP}
\citation{Cardano_WP}
\citation{Cardano_WP}
\citation{Cardano_WP}
\citation{Cardano_Web2}
\@writefile{toc}{\contentsline {subsection}{\numberline {\oldstylenums  {\oldstylenums  {6}.3}}Cardano}{10}{subsection.6.3}}
\citation{Cardano_Web}
\citation{Cardano_Web}
\citation{Cardano_Web}
\citation{Cardano_Web}
\citation{IOTA_Web}
\citation{IOTA_WP}
\citation{IOTA_WP}
\citation{IOTA_Web}
\citation{IOTA_WP}
\citation{IOTA_WP}
\citation{IOTA_WP}
\citation{IOTA_Web}
\citation{IOTA_Web}
\citation{IOTA_Web}
\citation{IOTA_WP}
\citation{IOTA_Web}
\citation{IOTA_Web}
\citation{IOTA_Web}
\citation{IOTA_Web}
\@writefile{toc}{\contentsline {subsection}{\numberline {\oldstylenums  {\oldstylenums  {6}.4}}IOTA}{11}{subsection.6.4}}
\@writefile{toc}{\contentsline {subsection}{\numberline {\oldstylenums  {\oldstylenums  {6}.5}}Zusammenfassung}{11}{subsection.6.5}}
\citation{Cardano_Youtube}
\gdef \LT@i {\LT@entry 
    {1}{84.66998pt}\LT@entry 
    {1}{91.49744pt}\LT@entry 
    {1}{91.49744pt}\LT@entry 
    {1}{91.49744pt}\LT@entry 
    {1}{91.49744pt}}
\citation{Fraunhofer}
\citation{sec:callingcard}
\@writefile{lot}{\contentsline {table}{\numberline {\oldstylenums  {1}}{\ignorespaces Vergleich der Smart Contract Plattformen Ethereum, EOS, Cardano und IOTA bezüglich deren Charakteristiken\relax }}{13}{table.1}}
\@writefile{toc}{\contentsline {section}{\numberline {\oldstylenums  {7}}Ethische Aspekte}{13}{section.7}}
\@writefile{toc}{\contentsline {section}{\numberline {\oldstylenums  {8}}Fazit}{14}{section.8}}
\bibstyle{unsrt}
\bibdata{literature}
\bibcite{cognizant}{1}
\bibcite{Fraunhofer}{2}
\bibcite{Norta}{3}
\bibcite{Res.practice}{4}
\bibcite{hash_functions}{5}
\bibcite{dlt_finra}{6}
\bibcite{BlockchainPaper}{7}
\bibcite{pos_attacks}{8}
\bibcite{DPoS}{9}
\bibcite{integersToDiophantineEquations}{10}
\bibcite{criminal}{11}
\bibcite{Atzei}{12}
\bibcite{Ethereum_WP}{13}
\bibcite{EOS_WP}{14}
\bibcite{Ethereum_Sharding}{15}
\bibcite{Ethereum_Casper}{16}
\bibcite{EOS_TechWP}{17}
\bibcite{EOS_Monitor}{18}
\bibcite{Cardano_Web}{19}
\bibcite{Cardano_WP}{20}
\bibcite{Cardano_Web2}{21}
\bibcite{IOTA_Web}{22}
\bibcite{IOTA_WP}{23}
\bibcite{Cardano_Youtube}{24}
\newlabel{LastPage}{{}{16}{}{page.16}{}}
\xdef\lastpage@lastpage{16}
\xdef\lastpage@lastpageHy{16}
\ttl@finishall
