\relax 
\providecommand\hyper@newdestlabel[2]{}
\providecommand\HyperFirstAtBeginDocument{\AtBeginDocument}
\HyperFirstAtBeginDocument{\ifx\hyper@anchor\@undefined
\global\let\oldcontentsline\contentsline
\gdef\contentsline#1#2#3#4{\oldcontentsline{#1}{#2}{#3}}
\global\let\oldnewlabel\newlabel
\gdef\newlabel#1#2{\newlabelxx{#1}#2}
\gdef\newlabelxx#1#2#3#4#5#6{\oldnewlabel{#1}{{#2}{#3}}}
\AtEndDocument{\ifx\hyper@anchor\@undefined
\let\contentsline\oldcontentsline
\let\newlabel\oldnewlabel
\fi}
\fi}
\global\let\hyper@last\relax 
\gdef\HyperFirstAtBeginDocument#1{#1}
\providecommand\HyField@AuxAddToFields[1]{}
\providecommand\HyField@AuxAddToCoFields[2]{}
\catcode `"\active 
\babel@aux{german}{}
\@writefile{nav}{\headcommand {\slideentry {0}{0}{1}{1/1}{}{0}}}
\@writefile{nav}{\headcommand {\beamer@framepages {1}{1}}}
\@writefile{toc}{\beamer@sectionintoc {1}{Was sind Smart Contracts?}{2}{0}{1}}
\@writefile{nav}{\headcommand {\beamer@sectionpages {1}{1}}}
\@writefile{nav}{\headcommand {\beamer@subsectionpages {1}{1}}}
\@writefile{nav}{\headcommand {\sectionentry {1}{Was sind Smart Contracts?}{2}{Was sind Smart Contracts?}{0}}}
\@writefile{nav}{\headcommand {\slideentry {1}{0}{1}{2/3}{}{0}}}
\@writefile{nav}{\headcommand {\beamer@framepages {2}{3}}}
\@writefile{nav}{\headcommand {\slideentry {1}{0}{2}{4/5}{}{0}}}
\@writefile{nav}{\headcommand {\beamer@framepages {4}{5}}}
\@writefile{toc}{\beamer@sectionintoc {2}{Potential}{6}{0}{2}}
\@writefile{nav}{\headcommand {\beamer@sectionpages {2}{5}}}
\@writefile{nav}{\headcommand {\beamer@subsectionpages {2}{5}}}
\@writefile{nav}{\headcommand {\sectionentry {2}{Potential}{6}{Potential}{0}}}
\@writefile{nav}{\headcommand {\slideentry {2}{0}{1}{6/6}{}{0}}}
\@writefile{nav}{\headcommand {\beamer@framepages {6}{6}}}
\@writefile{toc}{\beamer@subsectionintoc {2}{1}{Beispiel}{7}{0}{2}}
\@writefile{nav}{\headcommand {\beamer@subsectionpages {6}{6}}}
\@writefile{nav}{\headcommand {\beamer@subsectionentry {0}{2}{1}{7}{Beispiel}}}
\@writefile{nav}{\headcommand {\slideentry {2}{1}{1}{7/7}{Beispiel}{0}}}
\@writefile{nav}{\headcommand {\beamer@framepages {7}{7}}}
\@writefile{toc}{\beamer@sectionintoc {3}{Gefahren}{8}{0}{3}}
\@writefile{nav}{\headcommand {\beamer@sectionpages {6}{7}}}
\@writefile{nav}{\headcommand {\beamer@subsectionpages {7}{7}}}
\@writefile{nav}{\headcommand {\sectionentry {3}{Gefahren}{8}{Gefahren}{0}}}
\@writefile{nav}{\headcommand {\slideentry {3}{0}{1}{8/9}{}{0}}}
\@writefile{nav}{\headcommand {\beamer@framepages {8}{9}}}
\@writefile{toc}{\beamer@sectionintoc {4}{Vergleich verschiedener Plattformen}{10}{0}{4}}
\@writefile{nav}{\headcommand {\beamer@sectionpages {8}{9}}}
\@writefile{nav}{\headcommand {\beamer@subsectionpages {8}{9}}}
\@writefile{nav}{\headcommand {\sectionentry {4}{Vergleich verschiedener Plattformen}{10}{Vergleich verschiedener Plattformen}{0}}}
\@writefile{nav}{\headcommand {\slideentry {4}{0}{1}{10/13}{}{0}}}
\@writefile{nav}{\headcommand {\beamer@framepages {10}{13}}}
\@writefile{nav}{\headcommand {\slideentry {4}{0}{2}{14/17}{}{0}}}
\@writefile{nav}{\headcommand {\beamer@framepages {14}{17}}}
\@writefile{nav}{\headcommand {\beamer@sectionpages {10}{17}}}
\@writefile{nav}{\headcommand {\beamer@subsectionpages {10}{17}}}
\@writefile{nav}{\headcommand {\sectionentry {5}{Fragen}{18}{Fragen}{0}}}
\@writefile{nav}{\headcommand {\slideentry {5}{0}{1}{18/18}{}{0}}}
\@writefile{nav}{\headcommand {\beamer@framepages {18}{18}}}
\@writefile{nav}{\headcommand {\beamer@partpages {1}{18}}}
\@writefile{nav}{\headcommand {\beamer@subsectionpages {18}{18}}}
\@writefile{nav}{\headcommand {\beamer@sectionpages {18}{18}}}
\@writefile{nav}{\headcommand {\beamer@documentpages {18}}}
\@writefile{nav}{\headcommand {\gdef \inserttotalframenumber {8}}}
\newlabel{LastPage}{{}{18}{}{page.18}{}}
\xdef\lastpage@lastpage{18}
\xdef\lastpage@lastpageHy{18}
