\babel@toc {german}{}
\beamer@sectionintoc {1}{Was sind Smart Contracts?}{2}{0}{1}
\beamer@sectionintoc {2}{Potential}{6}{0}{2}
\beamer@subsectionintoc {2}{1}{Beispiel}{7}{0}{2}
\beamer@sectionintoc {3}{Gefahren}{8}{0}{3}
\beamer@sectionintoc {4}{Vergleich verschiedener Plattformen}{10}{0}{4}
