\relax 
\providecommand\hyper@newdestlabel[2]{}
\providecommand\HyperFirstAtBeginDocument{\AtBeginDocument}
\HyperFirstAtBeginDocument{\ifx\hyper@anchor\@undefined
\global\let\oldcontentsline\contentsline
\gdef\contentsline#1#2#3#4{\oldcontentsline{#1}{#2}{#3}}
\global\let\oldnewlabel\newlabel
\gdef\newlabel#1#2{\newlabelxx{#1}#2}
\gdef\newlabelxx#1#2#3#4#5#6{\oldnewlabel{#1}{{#2}{#3}}}
\AtEndDocument{\ifx\hyper@anchor\@undefined
\let\contentsline\oldcontentsline
\let\newlabel\oldnewlabel
\fi}
\fi}
\global\let\hyper@last\relax 
\gdef\HyperFirstAtBeginDocument#1{#1}
\providecommand\HyField@AuxAddToFields[1]{}
\providecommand\HyField@AuxAddToCoFields[2]{}
\citation{hash_functions}
\citation{dlt_finra}
\citation{cognizant}
\providecommand \oddpage@label [2]{}
\babel@aux{english}{}
\@writefile{toc}{\contentsline {section}{\numberline {\oldstylenums  {1}}Was ist ein {\normalfont  <<}Smart Contract{\normalfont  >>}?}{1}{section.1}}
\newlabel{sec:smart_contract}{{\oldstylenums  {1}}{1}{Was ist ein \quotes {Smart Contract}?}{section.1}{}}
\@writefile{toc}{\contentsline {section}{\numberline {\oldstylenums  {2}}Funktionsprinzip von Smart Conracts}{1}{section.2}}
\@writefile{toc}{\contentsline {subsection}{\numberline {\oldstylenums  {\oldstylenums  {2}.1}}Recall: Funktionsprinzip von Blockchains}{1}{subsection.2.1}}
\newlabel{sec:funktionsprinzip}{{\oldstylenums  {\oldstylenums  {2}.1}}{1}{Recall: Funktionsprinzip von Blockchains}{subsection.2.1}{}}
\citation{BlockchainPaper}
\citation{BlockchainPaper}
\citation{pos_attacks}
\citation{DPoS}
\citation{cognizant}
\citation{cognizant}
\@writefile{toc}{\contentsline {subsection}{\numberline {\oldstylenums  {\oldstylenums  {2}.2}}Ausweitung von Blockchains auf Smart Contracts}{2}{subsection.2.2}}
\@writefile{toc}{\contentsline {section}{\numberline {\oldstylenums  {3}}Das Potential von Smart Contracts}{2}{section.3}}
\@writefile{toc}{\contentsline {subsection}{\numberline {\oldstylenums  {\oldstylenums  {3}.1}}Beispiele}{2}{subsection.3.1}}
\newlabel{sec:beispiele}{{\oldstylenums  {\oldstylenums  {3}.1}}{2}{Beispiele}{subsection.3.1}{}}
\citation{integersToDiophantineEquations}
\citation{criminal}
\citation{criminal}
\citation{criminal}
\bibstyle{unsrt}
\bibdata{../Article/literature}
\bibcite{hash_functions}{1}
\@writefile{toc}{\contentsline {section}{\numberline {\oldstylenums  {4}}Gefahren von Smart Contracts}{3}{section.4}}
\@writefile{toc}{\contentsline {subsection}{\numberline {\oldstylenums  {\oldstylenums  {4}.1}}Kriminalität}{3}{subsection.4.1}}
\bibcite{dlt_finra}{2}
\bibcite{cognizant}{3}
\bibcite{BlockchainPaper}{4}
\bibcite{pos_attacks}{5}
\bibcite{DPoS}{6}
\bibcite{criminal}{7}
\bibcite{integersToDiophantineEquations}{8}
\newlabel{LastPage}{{}{4}{}{page.4}{}}
\xdef\lastpage@lastpage{4}
\xdef\lastpage@lastpageHy{4}
\ttl@finishall
