\BOOKMARK [1][-]{section.1}{Was ist ein <<Smart Contract>>?}{}% 1
\BOOKMARK [1][-]{section.2}{Funktionsprinzip von Smart Conracts}{}% 2
\BOOKMARK [2][-]{subsection.2.1}{Recall: Funktionsprinzip von Blockchains}{section.2}% 3
\BOOKMARK [2][-]{subsection.2.2}{Ausweitung von Blockchains auf Smart Contracts}{section.2}% 4
\BOOKMARK [1][-]{section.3}{Das Potential von Smart Contracts}{}% 5
\BOOKMARK [2][-]{subsection.3.1}{Beispiele}{section.3}% 6
\BOOKMARK [1][-]{section.4}{Gefahren von Smart Contracts}{}% 7
\BOOKMARK [2][-]{subsection.4.1}{Kriminalität}{section.4}% 8
